wildRtrax
…
---

# Scanning acoustic data

```r
# Scan data
files <- wt_audio_scanner(path = ".", file_type = "wav", extra_cols = T)
```

```r
files
```

```
## # A tibble: 1,166 × 13
##    file_path      size_Mb file_name location recording_date_time file_type
##    <chr>            <dbl> <chr>     <chr>    <dttm>              <chr>    
##  1 /volumes/buda…    4.36 339-NW_2… 339-NW   2022-11-17 15:28:51 wav      
##  2 /volumes/buda…  106.   339-NW_2… 339-NW   2023-03-01 00:00:00 wav      
##  3 /volumes/buda…   31.8  339-NW_2… 339-NW   2023-03-01 02:00:00 wav      
##  4 /volumes/buda…  106.   339-NW_2… 339-NW   2023-03-01 09:00:00 wav      
##  5 /volumes/buda…   31.8  339-NW_2… 339-NW   2023-03-01 10:30:00 wav      
##  6 /volumes/buda…   31.8  339-NW_2… 339-NW   2023-03-01 12:00:00 wav      
##  7 /volumes/buda…   31.8  339-NW_2… 339-NW   2023-03-01 15:00:00 wav      
##  8 /volumes/buda…   31.8  339-NW_2… 339-NW   2023-03-01 18:16:00 wav      
##  9 /volumes/buda…   31.8  339-NW_2… 339-NW   2023-03-01 20:16:00 wav      
## 10 /volumes/buda…  106.   339-NW_2… 339-NW   2023-03-02 00:00:00 wav      
## # ℹ 1,156 more rows
## # ℹ 7 more variables: julian <dbl>, year <dbl>, gps_enabled <lgl>,
## #   time_index <int>, length_seconds <dbl>, sample_rate <dbl>,
## #   n_channels <dbl>
```
…
