wildRtrax
…
class: my-one-page-font

# Scanning acoustic data

```r
# Plan futures
future::plan(multisession)

# Scan data
files <- wt_audio_scanner(path = ".", file_type = "wav", extra_cols = F)
```

```
## # A tibble: 1,041 × 11
##    file_path     size_Mb unsafe file_name location recording_date_time file_type
##    <chr>           <dbl> <chr>  <chr>     <chr>    <dttm>              <chr>    
##  1 /volumes/bud…    3.51 Safe   228-NE_2… 228-NE   2021-11-21 12:35:49 wav      
##  2 /volumes/bud…  106.   Safe   228-NE_2… 228-NE   2022-03-01 00:00:00 wav      
##  3 /volumes/bud…   31.8  Safe   228-NE_2… 228-NE   2022-03-01 02:00:00 wav      
##  4 /volumes/bud…  106.   Safe   228-NE_2… 228-NE   2022-03-01 08:59:00 wav      
##  5 /volumes/bud…   31.8  Safe   228-NE_2… 228-NE   2022-03-01 10:29:00 wav      
##  6 /volumes/bud…   31.8  Safe   228-NE_2… 228-NE   2022-03-01 12:00:00 wav      
##  7 /volumes/bud…   31.8  Safe   228-NE_2… 228-NE   2022-03-01 15:00:00 wav      
##  8 /volumes/bud…   31.8  Safe   228-NE_2… 228-NE   2022-03-01 18:17:00 wav      
##  9 /volumes/bud…   31.8  Safe   228-NE_2… 228-NE   2022-03-01 20:17:00 wav      
## 10 /volumes/bud…  106.   Safe   228-NE_2… 228-NE   2022-03-02 00:00:00 wav      
## # ℹ 1,031 more rows
## # ℹ 4 more variables: julian <dbl>, year <dbl>, gps_enabled <lgl>,
## #   time_index <int>
```
…
`wt_audio_scanner(path = '.', file_type = 'wav', extra_cols = T, tz = 'US/Mountain')`

---

# Filtering files

```r
files %>%
  mutate(hour = lubridate::hour(recording_date_time)) %>%
  filter(julian %in% c(140:150),
         hour %in% c(4:8))
```

```
## # A tibble: 22 × 12
##    file_path     size_Mb unsafe file_name location recording_date_time file_type
##    <chr>           <dbl> <chr>  <chr>     <chr>    <dttm>              <chr>    
##  1 /volumes/bud…   106.  Safe   228-NE_2… 228-NE   2022-05-20 05:57:00 wav      
##  2 /volumes/bud…    31.8 Safe   228-NE_2… 228-NE   2022-05-20 07:27:00 wav      
##  3 /volumes/bud…   106.  Safe   228-NE_2… 228-NE   2022-05-21 05:55:00 wav      
##  4 /volumes/bud…    31.8 Safe   228-NE_2… 228-NE   2022-05-21 07:25:00 wav      
##  5 /volumes/bud…   106.  Safe   228-NE_2… 228-NE   2022-05-22 05:54:00 wav      
##  6 /volumes/bud…    31.8 Safe   228-NE_2… 228-NE   2022-05-22 07:24:00 wav      
##  7 /volumes/bud…   106.  Safe   228-NE_2… 228-NE   2022-05-23 05:52:00 wav      
##  8 /volumes/bud…    31.8 Safe   228-NE_2… 228-NE   2022-05-23 07:22:00 wav      
##  9 /volumes/bud…   106.  Safe   228-NE_2… 228-NE   2022-05-24 05:51:00 wav      
## 10 /volumes/bud…    31.8 Safe   228-NE_2… 228-NE   2022-05-24 07:21:00 wav      
## # ℹ 12 more rows
## # ℹ 5 more variables: julian <dbl>, year <dbl>, gps_enabled <lgl>,
## #   time_index <int>, hour <int>
```
…
